{
    "thingId": "s3i:7f654f13-11ac-413d-841c-10a8e431fc35",
    "policyId": "s3i:7f654f13-11ac-413d-841c-10a8e431fc35",
    "attributes": {
        "class": "ml40::Thing",
        "name": "WheelLoader",
        "roles": [
            {
                "class": "fml40::WheelLoader"
            }
        ],
        "features": [
            {
                "class": "ml40::Composite",
                "targets": [
                    {
                        "class": "ml40::Thing",
                        "name": "Scale",
                        "identifier": "...",
                        "roles": [
                            {
                                "class": "ml40::Scale"
                            }
                        ],
                        "features": [
                            {
                                "class": "ml40::Weight",
                                "currentWeight": "15430"
                            }
                        ]
                    },
                    {
                        "class": "ml40::Thing",
                        "name": "LoadingArea",
                        "identifier": "...",
                        "roles": [
                            {
                                "class": "fml40::LogLoadingArea"
                            }
                        ],
                        "features": [
                            {
                                "class": "ml40::Weight",
                                "currentWeight": "2356"
                            }
                        ]
                    }
                ]
            },
            {
                "class": "ml40::Dimensions",
                "weight": 15000
            },
            {
                "class": "fml40::Forwarding"
            },
            {
                "class": "ml40::Location"
            }
        ]
    }
}
